{
    "appName": {
        "message": "M1ShopChrome",
        "description": "The name of the application"
    },
    "appDescription": {
        "message": "M1 Shop Chrome",
        "description": "The description of the application"
    }
}
